Problem Set Questions
…
#disp1 corrected to displ
#Year corrected to year (lower case y needed)

# Use base R to filter the data where cyl equals 8
subset(mpg, cyl == 8)

# A tibble: 70 × 11
   manufacturer model      displ  year   cyl trans drv     cty   hwy fl    class
   <chr>        <chr>      <dbl> <int> <int> <chr> <chr> <int> <int> <chr> <chr>
 1 audi         a6 quattro   4.2  2008     8 auto… 4        16    23 p     mids…
 2 chevrolet    c1500 sub…   5.3  2008     8 auto… r        14    20 r     suv  
 3 chevrolet    c1500 sub…   5.3  2008     8 auto… r        11    15 e     suv  
 4 chevrolet    c1500 sub…   5.3  2008     8 auto… r        14    20 r     suv  
 5 chevrolet    c1500 sub…   5.7  1999     8 auto… r        13    17 r     suv  
 6 chevrolet    c1500 sub…   6    2008     8 auto… r        12    17 r     suv  
 7 chevrolet    corvette     5.7  1999     8 manu… r        16    26 p     2sea…
 8 chevrolet    corvette     5.7  1999     8 auto… r        15    23 p     2sea…
 9 chevrolet    corvette     6.2  2008     8 manu… r        16    26 p     2sea…
10 chevrolet    corvette     6.2  2008     8 auto… r        15    25 p     2sea…
# ℹ 60 more rows
…
